[{"line":1,"elements":[{"line":4,"name":"karate config test case 1","description":"","id":"karate-config-test-case-1","type":"scenario","keyword":"Scenario","steps":[{"name":"url baseUrl","result":{"duration":77022,"status":"passed"},"match":{"location":"karate","arguments":[]},"keyword":"Given","line":5,"doc_string":{"content_type":"","value":"17:24:31.339 from karate config file","line":5}},{"name":"path listUsers","result":{"duration":80138,"status":"passed"},"match":{"location":"karate","arguments":[]},"keyword":"And","line":6},{"name":"method get","result":{"duration":849813901,"status":"passed"},"match":{"location":"karate","arguments":[]},"keyword":"When","line":7,"doc_string":{"content_type":"","value":"17:24:31.995 request:\n1 > GET https:\/\/reqres.in\/api\/users%3Fpage=2\n1 > Accept-Encoding: gzip,deflate\n1 > Connection: Keep-Alive\n1 > Host: reqres.in\n1 > User-Agent: Apache-HttpClient\/4.5.12 (Java\/1.8.0_251)\n\n17:24:32.370 response time in milliseconds: 377.49\n1 < 200\n1 < Access-Control-Allow-Origin: *\n1 < Age: 2707\n1 < CF-Cache-Status: HIT\n1 < CF-RAY: 5fbd24f27e833c01-BLR\n1 < Cache-Control: max-age=14400\n1 < Connection: keep-alive\n1 < Content-Type: application\/json; charset=utf-8\n1 < Date: Thu, 03 Dec 2020 12:03:25 GMT\n1 < Etag: W\/\"2c1-N6Rqerxquq2kgQhL51EiSg4x0R8\"\n1 < Expect-CT: max-age=604800, report-uri=\"https:\/\/report-uri.cloudflare.com\/cdn-cgi\/beacon\/expect-ct\"\n1 < NEL: {\"report_to\":\"cf-nel\",\"max_age\":604800}\n1 < Report-To: {\"endpoints\":[{\"url\":\"https:\\\/\\\/a.nel.cloudflare.com\\\/report?s=Ey%2BNF2VkC261g%2FrBbGBehNC71IFMlnwFmdPKUynwcUMKUwM8Ym7g0KjGyCxT%2FyoiNu5NkoHinK3w9lS6iLeZoWeWKwSrIoSTeak%3D\"}],\"group\":\"cf-nel\",\"max_age\":604800}\n1 < Server: cloudflare\n1 < Set-Cookie: __cfduid=daede1a524d3fd93e56ad5833c783a1b91606997005; expires=Sat, 02-Jan-21 12:03:25 GMT; path=\/; domain=.reqres.in; HttpOnly; SameSite=Lax; Secure\n1 < Transfer-Encoding: chunked\n1 < Vary: Accept-Encoding\n1 < Via: 1.1 vegur\n1 < X-Powered-By: Express\n1 < cf-request-id: 06ca156b8f00003c0114946000000001\n{\"page\":1,\"per_page\":6,\"total\":12,\"total_pages\":2,\"data\":[{\"id\":1,\"name\":\"cerulean\",\"year\":2000,\"color\":\"#98B2D1\",\"pantone_value\":\"15-4020\"},{\"id\":2,\"name\":\"fuchsia rose\",\"year\":2001,\"color\":\"#C74375\",\"pantone_value\":\"17-2031\"},{\"id\":3,\"name\":\"true red\",\"year\":2002,\"color\":\"#BF1932\",\"pantone_value\":\"19-1664\"},{\"id\":4,\"name\":\"aqua sky\",\"year\":2003,\"color\":\"#7BC4C4\",\"pantone_value\":\"14-4811\"},{\"id\":5,\"name\":\"tigerlily\",\"year\":2004,\"color\":\"#E2583E\",\"pantone_value\":\"17-1456\"},{\"id\":6,\"name\":\"blue turquoise\",\"year\":2005,\"color\":\"#53B0AE\",\"pantone_value\":\"15-5217\"}],\"support\":{\"url\":\"https:\/\/reqres.in\/#support-heading\",\"text\":\"To keep ReqRes free, contributions towards server costs are appreciated!\"}}","line":7}},{"name":"status 200","result":{"duration":26268,"status":"passed"},"match":{"location":"karate","arguments":[]},"keyword":"Then","line":8}]}],"name":"src\/test\/java\/FeatureFiles\/karate_config_example.feature","description":"Karate Config Suite files\nReading Global variables from karate config.js files","id":"karate-config-suite-files","keyword":"Feature","uri":"src\/test\/java\/FeatureFiles\/karate_config_example.feature"}]