[{"line":1,"elements":[{"line":14,"name":"DDT test case","description":"","id":"ddt-test-case","type":"scenario","keyword":"Scenario Outline","steps":[{"name":"url \"https:\/\/reqres.in\"","result":{"duration":5673784,"status":"passed"},"match":{"location":"karate","arguments":[]},"keyword":"Given","line":6,"doc_string":{"content_type":"","value":"16:42:52.198 skipping bootstrap configuration: could not find or read file: classpath:karate-config.js","line":6}},{"name":"path \"\/api\/users?page=1\"","result":{"duration":3938792,"status":"passed"},"match":{"location":"karate","arguments":[]},"keyword":"And","line":7},{"name":"method get","result":{"duration":1337625773,"status":"passed"},"match":{"location":"karate","arguments":[]},"keyword":"When","line":8,"doc_string":{"content_type":"","value":"16:42:52.904 request:\n1 > GET https:\/\/reqres.in\/api\/users%3Fpage=1\n1 > Accept-Encoding: gzip,deflate\n1 > Connection: Keep-Alive\n1 > Host: reqres.in\n1 > User-Agent: Apache-HttpClient\/4.5.12 (Java\/1.8.0_251)\n\n16:42:53.520 response time in milliseconds: 598.26\n1 < 200\n1 < Age: 13\n1 < CF-Cache-Status: HIT\n1 < CF-RAY: 5fb4aa82acd11950-SIN\n1 < Cache-Control: max-age=14400\n1 < Connection: keep-alive\n1 < Content-Type: application\/json; charset=utf-8\n1 < Date: Wed, 02 Dec 2020 11:21:44 GMT\n1 < Expect-CT: max-age=604800, report-uri=\"https:\/\/report-uri.cloudflare.com\/cdn-cgi\/beacon\/expect-ct\"\n1 < NEL: {\"report_to\":\"cf-nel\",\"max_age\":604800}\n1 < Report-To: {\"endpoints\":[{\"url\":\"https:\\\/\\\/a.nel.cloudflare.com\\\/report?s=rOvVe2uJx6jD%2FB9dCTipWRKTWHeTchjqhlt%2FLdqnd1U0RXboJAAVixQBk%2Ff0P1bSIXDxlEDlEc1AUmZN3bBM%2BnxmMS%2Fd2cHz6bQ%3D\"}],\"group\":\"cf-nel\",\"max_age\":604800}\n1 < Server: cloudflare\n1 < Set-Cookie: __cfduid=d3baf67a5bb9381aeec04e1458acdfdd61606908104; expires=Fri, 01-Jan-21 11:21:44 GMT; path=\/; domain=.reqres.in; HttpOnly; SameSite=Lax; Secure\n1 < Transfer-Encoding: chunked\n1 < Vary: Accept-Encoding\n1 < access-control-allow-origin: *\n1 < cf-request-id: 06c4c8e5a600001950a2aba000000001\n1 < etag: W\/\"2c1-N6Rqerxquq2kgQhL51EiSg4x0R8\"\n1 < via: 1.1 vegur\n1 < x-powered-by: Express\n{\"page\":1,\"per_page\":6,\"total\":12,\"total_pages\":2,\"data\":[{\"id\":1,\"name\":\"cerulean\",\"year\":2000,\"color\":\"#98B2D1\",\"pantone_value\":\"15-4020\"},{\"id\":2,\"name\":\"fuchsia rose\",\"year\":2001,\"color\":\"#C74375\",\"pantone_value\":\"17-2031\"},{\"id\":3,\"name\":\"true red\",\"year\":2002,\"color\":\"#BF1932\",\"pantone_value\":\"19-1664\"},{\"id\":4,\"name\":\"aqua sky\",\"year\":2003,\"color\":\"#7BC4C4\",\"pantone_value\":\"14-4811\"},{\"id\":5,\"name\":\"tigerlily\",\"year\":2004,\"color\":\"#E2583E\",\"pantone_value\":\"17-1456\"},{\"id\":6,\"name\":\"blue turquoise\",\"year\":2005,\"color\":\"#53B0AE\",\"pantone_value\":\"15-5217\"}],\"support\":{\"url\":\"https:\/\/reqres.in\/#support-heading\",\"text\":\"To keep ReqRes free, contributions towards server costs are appreciated!\"}}","line":8}},{"name":"status 200","result":{"duration":19144,"status":"passed"},"match":{"location":"karate","arguments":[]},"keyword":"Then","line":9},{"name":"match response.page == \"##\"","result":{"duration":26200737,"status":"passed"},"match":{"location":"karate","arguments":[]},"keyword":"And","line":10}],"tags":[{"name":"@ddt","line":4}]},{"line":15,"name":"DDT test case","description":"","id":"ddt-test-case","type":"scenario","keyword":"Scenario Outline","steps":[{"name":"url \"https:\/\/reqres.in\"","result":{"duration":259113,"status":"passed"},"match":{"location":"karate","arguments":[]},"keyword":"Given","line":6,"doc_string":{"content_type":"","value":"16:42:53.620 skipping bootstrap configuration: could not find or read file: classpath:karate-config.js","line":6}},{"name":"path \"\/api\/users?page=2\"","result":{"duration":4820757,"status":"passed"},"match":{"location":"karate","arguments":[]},"keyword":"And","line":7},{"name":"method get","result":{"duration":186519865,"status":"passed"},"match":{"location":"karate","arguments":[]},"keyword":"When","line":8,"doc_string":{"content_type":"","value":"16:42:53.629 request:\n1 > GET https:\/\/reqres.in\/api\/users%3Fpage=2\n1 > Accept-Encoding: gzip,deflate\n1 > Connection: Keep-Alive\n1 > Host: reqres.in\n1 > User-Agent: Apache-HttpClient\/4.5.12 (Java\/1.8.0_251)\n\n16:42:53.812 response time in milliseconds: 181.04\n1 < 200\n1 < Access-Control-Allow-Origin: *\n1 < Age: 2342\n1 < CF-Cache-Status: HIT\n1 < CF-RAY: 5fb4aa84aa671a5a-SIN\n1 < Cache-Control: max-age=14400\n1 < Connection: keep-alive\n1 < Content-Type: application\/json; charset=utf-8\n1 < Date: Wed, 02 Dec 2020 11:21:44 GMT\n1 < Etag: W\/\"2c1-N6Rqerxquq2kgQhL51EiSg4x0R8\"\n1 < Expect-CT: max-age=604800, report-uri=\"https:\/\/report-uri.cloudflare.com\/cdn-cgi\/beacon\/expect-ct\"\n1 < NEL: {\"report_to\":\"cf-nel\",\"max_age\":604800}\n1 < Report-To: {\"endpoints\":[{\"url\":\"https:\\\/\\\/a.nel.cloudflare.com\\\/report?s=wPyRrgBxYnNQc4fKI%2F3WQ2owBzsyaTkhnwGIhzQcqvFPwWorXKGBpYrXr4kqECKsfo7olfX4KewM9JJ4GpyDN5R3INqFOQv%2FQoI%3D\"}],\"group\":\"cf-nel\",\"max_age\":604800}\n1 < Server: cloudflare\n1 < Set-Cookie: __cfduid=dc490a386676e2f59c9c87cba9c7b43e71606908104; expires=Fri, 01-Jan-21 11:21:44 GMT; path=\/; domain=.reqres.in; HttpOnly; SameSite=Lax; Secure\n1 < Transfer-Encoding: chunked\n1 < Vary: Accept-Encoding\n1 < Via: 1.1 vegur\n1 < X-Powered-By: Express\n1 < cf-request-id: 06c4c8e6e600001a5adabea000000001\n{\"page\":1,\"per_page\":6,\"total\":12,\"total_pages\":2,\"data\":[{\"id\":1,\"name\":\"cerulean\",\"year\":2000,\"color\":\"#98B2D1\",\"pantone_value\":\"15-4020\"},{\"id\":2,\"name\":\"fuchsia rose\",\"year\":2001,\"color\":\"#C74375\",\"pantone_value\":\"17-2031\"},{\"id\":3,\"name\":\"true red\",\"year\":2002,\"color\":\"#BF1932\",\"pantone_value\":\"19-1664\"},{\"id\":4,\"name\":\"aqua sky\",\"year\":2003,\"color\":\"#7BC4C4\",\"pantone_value\":\"14-4811\"},{\"id\":5,\"name\":\"tigerlily\",\"year\":2004,\"color\":\"#E2583E\",\"pantone_value\":\"17-1456\"},{\"id\":6,\"name\":\"blue turquoise\",\"year\":2005,\"color\":\"#53B0AE\",\"pantone_value\":\"15-5217\"}],\"support\":{\"url\":\"https:\/\/reqres.in\/#support-heading\",\"text\":\"To keep ReqRes free, contributions towards server costs are appreciated!\"}}","line":8}},{"name":"status 200","result":{"duration":14247,"status":"passed"},"match":{"location":"karate","arguments":[]},"keyword":"Then","line":9},{"name":"match response.page == \"##\"","result":{"duration":545831,"status":"passed"},"match":{"location":"karate","arguments":[]},"keyword":"And","line":10}],"tags":[{"name":"@ddt","line":4}]},{"line":16,"name":"DDT test case","description":"","id":"ddt-test-case","type":"scenario","keyword":"Scenario Outline","steps":[{"name":"url \"https:\/\/reqres.in\"","result":{"duration":406924,"status":"passed"},"match":{"location":"karate","arguments":[]},"keyword":"Given","line":6,"doc_string":{"content_type":"","value":"16:42:53.829 skipping bootstrap configuration: could not find or read file: classpath:karate-config.js","line":6}},{"name":"path \"\/api\/users?page=3\"","result":{"duration":8616637,"status":"passed"},"match":{"location":"karate","arguments":[]},"keyword":"And","line":7},{"name":"method get","result":{"duration":157368261,"status":"passed"},"match":{"location":"karate","arguments":[]},"keyword":"When","line":8,"doc_string":{"content_type":"","value":"16:42:53.844 request:\n1 > GET https:\/\/reqres.in\/api\/users%3Fpage=3\n1 > Accept-Encoding: gzip,deflate\n1 > Connection: Keep-Alive\n1 > Host: reqres.in\n1 > User-Agent: Apache-HttpClient\/4.5.12 (Java\/1.8.0_251)\n\n16:42:53.997 response time in milliseconds: 150.97\n1 < 200\n1 < Access-Control-Allow-Origin: *\n1 < Age: 938\n1 < CF-Cache-Status: HIT\n1 < CF-RAY: 5fb4aa85caef1797-SIN\n1 < Cache-Control: max-age=14400\n1 < Connection: keep-alive\n1 < Content-Type: application\/json; charset=utf-8\n1 < Date: Wed, 02 Dec 2020 11:21:44 GMT\n1 < Etag: W\/\"2c1-N6Rqerxquq2kgQhL51EiSg4x0R8\"\n1 < Expect-CT: max-age=604800, report-uri=\"https:\/\/report-uri.cloudflare.com\/cdn-cgi\/beacon\/expect-ct\"\n1 < NEL: {\"report_to\":\"cf-nel\",\"max_age\":604800}\n1 < Report-To: {\"endpoints\":[{\"url\":\"https:\\\/\\\/a.nel.cloudflare.com\\\/report?s=49JD6L4TTlvmJqr8id8lMsE9yAoDMWLfGoK0AdKQh1VK8mrW6bosdFMfCFSpNetUUZWCJKIeK3RxMY0yoEyXMqJfQsttSMgtOos%3D\"}],\"group\":\"cf-nel\",\"max_age\":604800}\n1 < Server: cloudflare\n1 < Set-Cookie: __cfduid=d83bf134e0804033aa599e7053072c1791606908104; expires=Fri, 01-Jan-21 11:21:44 GMT; path=\/; domain=.reqres.in; HttpOnly; SameSite=Lax; Secure\n1 < Transfer-Encoding: chunked\n1 < Vary: Accept-Encoding\n1 < Via: 1.1 vegur\n1 < X-Powered-By: Express\n1 < cf-request-id: 06c4c8e7a100001797729cc000000001\n{\"page\":1,\"per_page\":6,\"total\":12,\"total_pages\":2,\"data\":[{\"id\":1,\"name\":\"cerulean\",\"year\":2000,\"color\":\"#98B2D1\",\"pantone_value\":\"15-4020\"},{\"id\":2,\"name\":\"fuchsia rose\",\"year\":2001,\"color\":\"#C74375\",\"pantone_value\":\"17-2031\"},{\"id\":3,\"name\":\"true red\",\"year\":2002,\"color\":\"#BF1932\",\"pantone_value\":\"19-1664\"},{\"id\":4,\"name\":\"aqua sky\",\"year\":2003,\"color\":\"#7BC4C4\",\"pantone_value\":\"14-4811\"},{\"id\":5,\"name\":\"tigerlily\",\"year\":2004,\"color\":\"#E2583E\",\"pantone_value\":\"17-1456\"},{\"id\":6,\"name\":\"blue turquoise\",\"year\":2005,\"color\":\"#53B0AE\",\"pantone_value\":\"15-5217\"}],\"support\":{\"url\":\"https:\/\/reqres.in\/#support-heading\",\"text\":\"To keep ReqRes free, contributions towards server costs are appreciated!\"}}","line":8}},{"name":"status 200","result":{"duration":14692,"status":"passed"},"match":{"location":"karate","arguments":[]},"keyword":"Then","line":9},{"name":"match response.page == \"##\"","result":{"duration":682955,"status":"passed"},"match":{"location":"karate","arguments":[]},"keyword":"And","line":10}],"tags":[{"name":"@ddt","line":4}]},{"line":17,"name":"DDT test case","description":"","id":"ddt-test-case","type":"scenario","keyword":"Scenario Outline","steps":[{"name":"url \"https:\/\/reqres.in\"","result":{"duration":365965,"status":"passed"},"match":{"location":"karate","arguments":[]},"keyword":"Given","line":6,"doc_string":{"content_type":"","value":"16:42:54.021 skipping bootstrap configuration: could not find or read file: classpath:karate-config.js","line":6}},{"name":"path \"\/api\/users?page=4\"","result":{"duration":4519349,"status":"passed"},"match":{"location":"karate","arguments":[]},"keyword":"And","line":7},{"name":"method get","result":{"duration":159563603,"status":"passed"},"match":{"location":"karate","arguments":[]},"keyword":"When","line":8,"doc_string":{"content_type":"","value":"16:42:54.029 request:\n1 > GET https:\/\/reqres.in\/api\/users%3Fpage=4\n1 > Accept-Encoding: gzip,deflate\n1 > Connection: Keep-Alive\n1 > Host: reqres.in\n1 > User-Agent: Apache-HttpClient\/4.5.12 (Java\/1.8.0_251)\n\n16:42:54.186 response time in milliseconds: 154.50\n1 < 200\n1 < Access-Control-Allow-Origin: *\n1 < Age: 12\n1 < CF-Cache-Status: HIT\n1 < CF-RAY: 5fb4aa86f9f41a05-SIN\n1 < Cache-Control: max-age=14400\n1 < Connection: keep-alive\n1 < Content-Type: application\/json; charset=utf-8\n1 < Date: Wed, 02 Dec 2020 11:21:44 GMT\n1 < Etag: W\/\"2c1-N6Rqerxquq2kgQhL51EiSg4x0R8\"\n1 < Expect-CT: max-age=604800, report-uri=\"https:\/\/report-uri.cloudflare.com\/cdn-cgi\/beacon\/expect-ct\"\n1 < NEL: {\"report_to\":\"cf-nel\",\"max_age\":604800}\n1 < Report-To: {\"endpoints\":[{\"url\":\"https:\\\/\\\/a.nel.cloudflare.com\\\/report?s=yWepJSE0qyZWdduvb4x%2BxufAmTZtjJFaTAU%2BqgUgtT1B4XfCrtESOgnB5PUY%2FHAOBj3Q1NEb7doE%2FVUiEjwK7ZyCq36crUVXF1o%3D\"}],\"group\":\"cf-nel\",\"max_age\":604800}\n1 < Server: cloudflare\n1 < Set-Cookie: __cfduid=d7bb8e2d7141a817a3d4e987b2918a6e41606908104; expires=Fri, 01-Jan-21 11:21:44 GMT; path=\/; domain=.reqres.in; HttpOnly; SameSite=Lax; Secure\n1 < Transfer-Encoding: chunked\n1 < Vary: Accept-Encoding\n1 < Via: 1.1 vegur\n1 < X-Powered-By: Express\n1 < cf-request-id: 06c4c8e85c00001a0502136000000001\n{\"page\":1,\"per_page\":6,\"total\":12,\"total_pages\":2,\"data\":[{\"id\":1,\"name\":\"cerulean\",\"year\":2000,\"color\":\"#98B2D1\",\"pantone_value\":\"15-4020\"},{\"id\":2,\"name\":\"fuchsia rose\",\"year\":2001,\"color\":\"#C74375\",\"pantone_value\":\"17-2031\"},{\"id\":3,\"name\":\"true red\",\"year\":2002,\"color\":\"#BF1932\",\"pantone_value\":\"19-1664\"},{\"id\":4,\"name\":\"aqua sky\",\"year\":2003,\"color\":\"#7BC4C4\",\"pantone_value\":\"14-4811\"},{\"id\":5,\"name\":\"tigerlily\",\"year\":2004,\"color\":\"#E2583E\",\"pantone_value\":\"17-1456\"},{\"id\":6,\"name\":\"blue turquoise\",\"year\":2005,\"color\":\"#53B0AE\",\"pantone_value\":\"15-5217\"}],\"support\":{\"url\":\"https:\/\/reqres.in\/#support-heading\",\"text\":\"To keep ReqRes free, contributions towards server costs are appreciated!\"}}","line":8}},{"name":"status 200","result":{"duration":14247,"status":"passed"},"match":{"location":"karate","arguments":[]},"keyword":"Then","line":9},{"name":"match response.page == \"##\"","result":{"duration":741279,"status":"passed"},"match":{"location":"karate","arguments":[]},"keyword":"And","line":10}],"tags":[{"name":"@ddt","line":4}]}],"name":"src\/test\/java\/FeatureFiles\/karate11.feature","description":"Karate test suite 11\ndata driven testing","id":"karate-test-suite-11","keyword":"Feature","uri":"src\/test\/java\/FeatureFiles\/karate11.feature"}]