[{"line":1,"elements":[{"line":4,"name":"URL & path Usage test case","description":"","id":"url-&-path-usage-test-case","type":"scenario","keyword":"Scenario","steps":[{"name":"url \"https:\/\/reqres.in\"","result":{"duration":7639396,"status":"passed"},"match":{"location":"karate","arguments":[]},"keyword":"Given","line":5,"doc_string":{"content_type":"","value":"19:00:28.757 from karate config file","line":5}},{"name":"path \"\/api\/users?page=2\"","result":{"duration":3071964,"status":"passed"},"match":{"location":"karate","arguments":[]},"keyword":"And","line":6},{"name":"method get","result":{"duration":27100066,"status":"passed"},"match":{"location":"karate","arguments":[]},"keyword":"When","line":7,"doc_string":{"content_type":"","value":"19:00:28.773 request:\n1 > GET https:\/\/reqres.in\/api\/users%3Fpage=2\n1 > Accept-Encoding: gzip,deflate\n1 > Connection: Keep-Alive\n1 > Host: reqres.in\n1 > User-Agent: Apache-HttpClient\/4.5.12 (Java\/1.8.0_251)\n\n19:00:28.804 response time in milliseconds: 23.35\n1 < 200\n1 < Access-Control-Allow-Origin: *\n1 < Age: 1099\n1 < CF-Cache-Status: HIT\n1 < CF-RAY: 5fbdb17d38d43c13-BLR\n1 < Cache-Control: max-age=14400\n1 < Connection: keep-alive\n1 < Content-Type: application\/json; charset=utf-8\n1 < Date: Thu, 03 Dec 2020 13:39:21 GMT\n1 < Etag: W\/\"2c1-N6Rqerxquq2kgQhL51EiSg4x0R8\"\n1 < Expect-CT: max-age=604800, report-uri=\"https:\/\/report-uri.cloudflare.com\/cdn-cgi\/beacon\/expect-ct\"\n1 < NEL: {\"report_to\":\"cf-nel\",\"max_age\":604800}\n1 < Report-To: {\"endpoints\":[{\"url\":\"https:\\\/\\\/a.nel.cloudflare.com\\\/report?s=c6MbUZdFlHeTwMKMoGgKY7rTYoRn7%2B7QIvWqwtsSxuSz0NPE4n1PgJlWbZwfUPKXXmPK%2BXqCvZ0jICjgkZUAh5OLipmZcSYKRLY%3D\"}],\"group\":\"cf-nel\",\"max_age\":604800}\n1 < Server: cloudflare\n1 < Set-Cookie: __cfduid=d8ff6c5a4027469d138e0157e3761877d1607002761; expires=Sat, 02-Jan-21 13:39:21 GMT; path=\/; domain=.reqres.in; HttpOnly; SameSite=Lax; Secure\n1 < Transfer-Encoding: chunked\n1 < Vary: Accept-Encoding\n1 < Via: 1.1 vegur\n1 < X-Powered-By: Express\n1 < cf-request-id: 06ca6d424600003c1339bd4000000001\n{\"page\":1,\"per_page\":6,\"total\":12,\"total_pages\":2,\"data\":[{\"id\":1,\"name\":\"cerulean\",\"year\":2000,\"color\":\"#98B2D1\",\"pantone_value\":\"15-4020\"},{\"id\":2,\"name\":\"fuchsia rose\",\"year\":2001,\"color\":\"#C74375\",\"pantone_value\":\"17-2031\"},{\"id\":3,\"name\":\"true red\",\"year\":2002,\"color\":\"#BF1932\",\"pantone_value\":\"19-1664\"},{\"id\":4,\"name\":\"aqua sky\",\"year\":2003,\"color\":\"#7BC4C4\",\"pantone_value\":\"14-4811\"},{\"id\":5,\"name\":\"tigerlily\",\"year\":2004,\"color\":\"#E2583E\",\"pantone_value\":\"17-1456\"},{\"id\":6,\"name\":\"blue turquoise\",\"year\":2005,\"color\":\"#53B0AE\",\"pantone_value\":\"15-5217\"}],\"support\":{\"url\":\"https:\/\/reqres.in\/#support-heading\",\"text\":\"To keep ReqRes free, contributions towards server costs are appreciated!\"}}","line":7}},{"name":"status 200","result":{"duration":12911,"status":"passed"},"match":{"location":"karate","arguments":[]},"keyword":"Then","line":8},{"name":"match response.page == 2","result":{"duration":4825210,"error_message":"com.intuit.karate.exception.KarateException: karate10.feature:9 - path: $.page, actual: 1, expected: 2, reason: not equal (Integer)","status":"failed"},"match":{"location":"karate","arguments":[]},"keyword":"And","line":9,"doc_string":{"content_type":"","value":"19:00:28.804 assertion failed: path: $.page, actual: 1, expected: 2, reason: not equal (Integer)19:00:28.804 after scenario inside config","line":9}}]},{"line":11,"name":"URL & path Usage test case2","description":"","id":"url-&-path-usage-test-case2","type":"scenario","keyword":"Scenario","steps":[{"name":"url \"https:\/\/reqres.in\"","result":{"duration":187880,"status":"passed"},"match":{"location":"karate","arguments":[]},"keyword":"Given","line":12,"doc_string":{"content_type":"","value":"19:00:28.867 from karate config file","line":12}},{"name":"path \"\/api\/users\"","result":{"duration":4987267,"status":"passed"},"match":{"location":"karate","arguments":[]},"keyword":"And","line":13},{"name":"param page = 2","result":{"duration":174969,"status":"passed"},"match":{"location":"karate","arguments":[]},"keyword":"And","line":14},{"name":"method get","result":{"duration":30126174,"status":"passed"},"match":{"location":"karate","arguments":[]},"keyword":"When","line":15,"doc_string":{"content_type":"","value":"19:00:28.882 request:\n1 > GET https:\/\/reqres.in\/api\/users?page=2\n1 > Accept-Encoding: gzip,deflate\n1 > Connection: Keep-Alive\n1 > Host: reqres.in\n1 > User-Agent: Apache-HttpClient\/4.5.12 (Java\/1.8.0_251)\n\n19:00:28.898 response time in milliseconds: 21.03\n1 < 200\n1 < Access-Control-Allow-Origin: *\n1 < Age: 2278\n1 < CF-Cache-Status: HIT\n1 < CF-RAY: 5fbdb17ddecd3c07-BLR\n1 < Cache-Control: max-age=14400\n1 < Connection: keep-alive\n1 < Content-Type: application\/json; charset=utf-8\n1 < Date: Thu, 03 Dec 2020 13:39:21 GMT\n1 < Etag: W\/\"406-ut0vzoCuidvyMf8arZpMpJ6ZRDw\"\n1 < Expect-CT: max-age=604800, report-uri=\"https:\/\/report-uri.cloudflare.com\/cdn-cgi\/beacon\/expect-ct\"\n1 < NEL: {\"report_to\":\"cf-nel\",\"max_age\":604800}\n1 < Report-To: {\"endpoints\":[{\"url\":\"https:\\\/\\\/a.nel.cloudflare.com\\\/report?s=8tYhizgajxdiO3%2FBi3grWbXQg0ZK9cPhK1GhGMY01zy5Q4bnQmV3iZsIg8UX0VpdYnTNj7MhkTlRXkEBJMYfjKqZOwfLe6%2BoN7w%3D\"}],\"group\":\"cf-nel\",\"max_age\":604800}\n1 < Server: cloudflare\n1 < Set-Cookie: __cfduid=d25fdd6558498dbd7f2bd9c8f257f5fbe1607002761; expires=Sat, 02-Jan-21 13:39:21 GMT; path=\/; domain=.reqres.in; HttpOnly; SameSite=Lax; Secure\n1 < Transfer-Encoding: chunked\n1 < Vary: Accept-Encoding\n1 < Via: 1.1 vegur\n1 < X-Powered-By: Express\n1 < cf-request-id: 06ca6d42a700003c0703bdb000000001\n{\"page\":2,\"per_page\":6,\"total\":12,\"total_pages\":2,\"data\":[{\"id\":7,\"email\":\"michael.lawson@reqres.in\",\"first_name\":\"Michael\",\"last_name\":\"Lawson\",\"avatar\":\"https:\/\/reqres.in\/img\/faces\/7-image.jpg\"},{\"id\":8,\"email\":\"lindsay.ferguson@reqres.in\",\"first_name\":\"Lindsay\",\"last_name\":\"Ferguson\",\"avatar\":\"https:\/\/reqres.in\/img\/faces\/8-image.jpg\"},{\"id\":9,\"email\":\"tobias.funke@reqres.in\",\"first_name\":\"Tobias\",\"last_name\":\"Funke\",\"avatar\":\"https:\/\/reqres.in\/img\/faces\/9-image.jpg\"},{\"id\":10,\"email\":\"byron.fields@reqres.in\",\"first_name\":\"Byron\",\"last_name\":\"Fields\",\"avatar\":\"https:\/\/reqres.in\/img\/faces\/10-image.jpg\"},{\"id\":11,\"email\":\"george.edwards@reqres.in\",\"first_name\":\"George\",\"last_name\":\"Edwards\",\"avatar\":\"https:\/\/reqres.in\/img\/faces\/11-image.jpg\"},{\"id\":12,\"email\":\"rachel.howell@reqres.in\",\"first_name\":\"Rachel\",\"last_name\":\"Howell\",\"avatar\":\"https:\/\/reqres.in\/img\/faces\/12-image.jpg\"}],\"support\":{\"url\":\"https:\/\/reqres.in\/#support-heading\",\"text\":\"To keep ReqRes free, contributions towards server costs are appreciated!\"}}","line":15}},{"name":"status 200","result":{"duration":13802,"status":"passed"},"match":{"location":"karate","arguments":[]},"keyword":"Then","line":16},{"name":"match response.page == 2","result":{"duration":429630,"status":"passed"},"match":{"location":"karate","arguments":[]},"keyword":"And","line":17,"doc_string":{"content_type":"","value":"19:00:28.898 after scenario inside config","line":17}}]}],"name":"FeatureFiles\/karate10.feature","description":"Karate test suite 10\nusing URL & Path","id":"karate-test-suite-10","keyword":"Feature","uri":"FeatureFiles\/karate10.feature"}]