[{"line":1,"elements":[{"line":3,"name":"Calling test case","description":"","id":"calling-test-case","type":"scenario","keyword":"Scenario","steps":[{"name":"def result = call read('called_feature.feature')","result":{"duration":62202821,"status":"passed"},"match":{"location":"karate","arguments":[]},"keyword":"*","line":4},{"name":"FeatureFiles\/called_feature.feature","result":{"duration":0,"status":"passed"},"match":{"location":"karate","arguments":[]},"keyword":"","line":4},{"name":"url \"https:\/\/reqres.in\"","result":{"duration":5265079,"status":"passed"},"match":{"location":"karate","arguments":[]},"keyword":"> Given","line":4,"doc_string":{"content_type":"","value":"19:00:24.679 from karate config file","line":4}},{"name":"path \"\/api\/users?page=2\"","result":{"duration":222161,"status":"passed"},"match":{"location":"karate","arguments":[]},"keyword":"> And","line":5},{"name":"method get","result":{"duration":32418571,"status":"passed"},"match":{"location":"karate","arguments":[]},"keyword":"> When","line":6,"doc_string":{"content_type":"","value":"19:00:24.710 request:\n1 > GET https:\/\/reqres.in\/api\/users%3Fpage=2\n1 > Accept-Encoding: gzip,deflate\n1 > Connection: Keep-Alive\n1 > Host: reqres.in\n1 > User-Agent: Apache-HttpClient\/4.5.12 (Java\/1.8.0_251)\n\n19:00:24.742 response time in milliseconds: 25.07\n1 < 200\n1 < Access-Control-Allow-Origin: *\n1 < Age: 1095\n1 < CF-Cache-Status: HIT\n1 < CF-RAY: 5fbdb163c9e13c12-BLR\n1 < Cache-Control: max-age=14400\n1 < Connection: keep-alive\n1 < Content-Type: application\/json; charset=utf-8\n1 < Date: Thu, 03 Dec 2020 13:39:17 GMT\n1 < Etag: W\/\"2c1-N6Rqerxquq2kgQhL51EiSg4x0R8\"\n1 < Expect-CT: max-age=604800, report-uri=\"https:\/\/report-uri.cloudflare.com\/cdn-cgi\/beacon\/expect-ct\"\n1 < NEL: {\"report_to\":\"cf-nel\",\"max_age\":604800}\n1 < Report-To: {\"endpoints\":[{\"url\":\"https:\\\/\\\/a.nel.cloudflare.com\\\/report?s=3ffjjCj3LuZso6RQYZ2zEM02InC7HPAJxL0ymlFn0JZg7VfHG83%2BiiHE0R4H4ZN%2B2eVist2ULjHcteWFdgYNHQgMl4xJByD1u%2BU%3D\"}],\"group\":\"cf-nel\",\"max_age\":604800}\n1 < Server: cloudflare\n1 < Set-Cookie: __cfduid=d6d851bdb8dff76f67c75175c1e5be0fd1607002757; expires=Sat, 02-Jan-21 13:39:17 GMT; path=\/; domain=.reqres.in; HttpOnly; SameSite=Lax; Secure\n1 < Transfer-Encoding: chunked\n1 < Vary: Accept-Encoding\n1 < Via: 1.1 vegur\n1 < X-Powered-By: Express\n1 < cf-request-id: 06ca6d326100003c125ba34000000001\n{\"page\":1,\"per_page\":6,\"total\":12,\"total_pages\":2,\"data\":[{\"id\":1,\"name\":\"cerulean\",\"year\":2000,\"color\":\"#98B2D1\",\"pantone_value\":\"15-4020\"},{\"id\":2,\"name\":\"fuchsia rose\",\"year\":2001,\"color\":\"#C74375\",\"pantone_value\":\"17-2031\"},{\"id\":3,\"name\":\"true red\",\"year\":2002,\"color\":\"#BF1932\",\"pantone_value\":\"19-1664\"},{\"id\":4,\"name\":\"aqua sky\",\"year\":2003,\"color\":\"#7BC4C4\",\"pantone_value\":\"14-4811\"},{\"id\":5,\"name\":\"tigerlily\",\"year\":2004,\"color\":\"#E2583E\",\"pantone_value\":\"17-1456\"},{\"id\":6,\"name\":\"blue turquoise\",\"year\":2005,\"color\":\"#53B0AE\",\"pantone_value\":\"15-5217\"}],\"support\":{\"url\":\"https:\/\/reqres.in\/#support-heading\",\"text\":\"To keep ReqRes free, contributions towards server costs are appreciated!\"}}","line":6}},{"name":"status 200","result":{"duration":13801,"status":"passed"},"match":{"location":"karate","arguments":[]},"keyword":"> Then","line":7},{"name":"match response.page == \"##\"","result":{"duration":3234021,"status":"passed"},"match":{"location":"karate","arguments":[]},"keyword":"> And","line":8},{"name":"match result.responseType == 'json'","result":{"duration":10604064,"status":"passed"},"match":{"location":"karate","arguments":[]},"keyword":"*","line":5},{"name":"match result.responseHeaders.Transfer-Encoding[0] == 'chunked'","result":{"duration":4923602,"status":"passed"},"match":{"location":"karate","arguments":[]},"keyword":"*","line":6},{"name":"print result.response.data[0]","result":{"duration":57064627,"status":"passed"},"match":{"location":"karate","arguments":[]},"keyword":"*","line":7,"doc_string":{"content_type":"","value":"19:00:24.820 [print] {\n  \"color\": \"#98B2D1\",\n  \"year\": 2000,\n  \"name\": \"cerulean\",\n  \"id\": 1,\n  \"pantone_value\": \"15-4020\"\n}19:00:24.820 after scenario inside config","line":7}}]}],"name":"FeatureFiles\/calling_feature.feature","description":"Calling feature","id":"calling-feature","keyword":"Feature","uri":"FeatureFiles\/calling_feature.feature"}]